<?xml version="1.0" encoding="UTF-8"?>
<svg width="22px" height="20px" viewBox="0 0 22 20" version="1.1" xmlns="http://www.w3.org/2000/svg" xmlns:xlink="http://www.w3.org/1999/xlink">
    <!-- Generator: Sketch 62 (91390) - https://sketch.com -->
    <title>arrow_servicos_right_black@1,5x</title>
    <desc>Created with Sketch.</desc>
    <g id="Page-1" stroke="none" stroke-width="1" fill="none" fill-rule="evenodd" stroke-linecap="round" stroke-linejoin="round">
        <g id="Projeto-interna" transform="translate(-1283.000000, -3350.000000)" stroke="#000000">
            <g id="arrow_servicos_right_black" transform="translate(1294.000000, 3360.000000) rotate(-180.000000) translate(-1294.000000, -3360.000000) translate(1284.000000, 3350.000000)">
                <line x1="20" y1="10" x2="0" y2="10" id="Path"></line>
                <polyline id="Path" points="10 20 0 10 10 0"></polyline>
            </g>
        </g>
    </g>
</svg>