<?xml version="1.0" encoding="UTF-8"?>
<svg width="18px" height="11px" viewBox="0 0 18 11" version="1.1" xmlns="http://www.w3.org/2000/svg" xmlns:xlink="http://www.w3.org/1999/xlink">
    <!-- Generator: Sketch 62 (91390) - https://sketch.com -->
    <title>check@1,5x</title>
    <desc>Created with Sketch.</desc>
    <g id="Page-1" stroke="none" stroke-width="1" fill="none" fill-rule="evenodd" opacity="0.5" stroke-linecap="round" stroke-linejoin="round">
        <g id="home" transform="translate(-835.000000, -1561.000000)" stroke="#000000">
            <g id="Group-7" transform="translate(836.000000, 1559.000000)">
                <g id="check" transform="translate(0.000000, 2.000000)">
                    <polyline id="Path" points="16 0 5 11 0 6"></polyline>
                </g>
            </g>
        </g>
    </g>
</svg>